Lab 8: County-level maps of Kentucky’s early childhood readiness
…
Load libraries and data

The chunks below load the tidyverse library (with chunk
options to avoid inlcuding unneccesary messages in our knitted document)
and import data from one sheet of the Excel file which contains all data
from Kentucky’s 2025 Early Childhood Profile.

Print out a few rows from the kydata object to check out
the column names and data structure:

kydata

## # A tibble: 363 × 5
##    `Population under 6` Group              Count County   `Poverty Percentage`
##                   <dbl> <chr>              <dbl> <chr>                   <dbl>
##  1                 1108 100% Poverty Level   214 Adair                  0.193 
##  2                 1489 100% Poverty Level   227 Allen                  0.152 
##  3                 1865 100% Poverty Level   261 Anderson               0.140 
##  4                  432 100% Poverty Level    92 Ballard                0.213 
##  5                 2955 100% Poverty Level  1037 Barren                 0.351 
##  6                 1040 100% Poverty Level   469 Bath                   0.451 
##  7                 1660 100% Poverty Level   486 Bell                   0.293 
##  8                10380 100% Poverty Level   783 Boone                  0.0754
##  9                 1535 100% Poverty Level   191 Bourbon                0.124 
## 10                 2855 100% Poverty Level   628 Boyd                   0.220 
## # ℹ 353 more rows
…
